pedestal_rms 33 -5 0
pedestal_rms 68 11 0
pedestal_rms 70 4 0
pedestal_rms 86 -27 0
pedestal_rms 133 -65 0
pedestal_rms 140 33 0
pedestal_rms 141 -24 0
pedestal_rms 180 45 0
pedestal_rms 186 0 0
pedestal_rms 188 -23 0
pedestal_rms 190 -84 0
pedestal_rms 198 -76 0
pedestal_rms 200 -1 0
pedestal_rms 233 -52 0
pedestal_rms 265 -51 0
pedestal_rms 297 32 0
pedestal_rms 309 -38 0
pedestal_rms 311 63 0
pedestal_rms 336 49 0